^C:\USERS\EDY_M\ONEDRIVE\DESKTOP\PROIECT\SOLUTION\X64\RELEASE\GLAD.OBJ|C:\USERS\EDY_M\ONEDRIVE\DESKTOP\PROIECT\SOLUTION\X64\RELEASE\MAIN.OBJ
/OUT:"C:\USERS\EDY_M\ONEDRIVE\DESKTOP\PROIECT\SOLUTION\X64\RELEASE\PROJECTG3D.EXE" /NOLOGO /LIBPATH:C:\USERS\EDY_M\ONEDRIVE\DESKTOP\PROIECT\SOLUTION\..\EXTERN\FREEGLUT\LIB\X64 /LIBPATH:"C:\USERS\EDY_M\ONEDRIVE\DESKTOP\PROIECT\SOLUTION\..\EXTERN\GLFW\LIB-VC2015" /LIBPATH:C:\USERS\EDY_M\ONEDRIVE\DESKTOP\PROIECT\SOLUTION\..\EXTERN\ASSIMP\LIB\X64\ /LIBPATH:C:\USERS\EDY_M\ONEDRIVE\DESKTOP\PROIECT\SOLUTION\..\GLEW\LIB\RELEASE\X64 "..\EXTERN\GLFW\LIB-VC2015\GLFW3.LIB" "..\EXTERN\ASSIMP\LIB\X64\ASSIMP-VC140-MT.LIB" KERNEL32.LIB USER32.LIB GDI32.LIB WINSPOOL.LIB COMDLG32.LIB ADVAPI32.LIB SHELL32.LIB OLE32.LIB OLEAUT32.LIB UUID.LIB ODBC32.LIB ODBCCP32.LIB /MANIFEST /MANIFESTUAC:"level='asInvoker' uiAccess='false'" /manifest:embed /DEBUG:FULL /PDB:"C:\USERS\EDY_M\ONEDRIVE\DESKTOP\PROIECT\SOLUTION\X64\RELEASE\PROJECTG3D.PDB" /OPT:REF /OPT:ICF /LTCG:incremental /TLBID:1 /DYNAMICBASE /NXCOMPAT /IMPLIB:"C:\USERS\EDY_M\ONEDRIVE\DESKTOP\PROIECT\SOLUTION\X64\RELEASE\PROJECTG3D.LIB" /MACHINE:X64 X64\RELEASE\GLAD.OBJX64\RELEASE\MAIN.OBJ
^A:\FACULTATE ANUL2\SEM1\G3D\AEROPORTUL\PROIECT\SOLUTION\X64\RELEASE\GLAD.OBJ|A:\FACULTATE ANUL2\SEM1\G3D\AEROPORTUL\PROIECT\SOLUTION\X64\RELEASE\MAIN.OBJ
/OUT:"A:\FACULTATE ANUL2\SEM1\G3D\AEROPORTUL\PROIECT\SOLUTION\X64\RELEASE\PROJECTG3D.EXE" /NOLOGO /LIBPATH:"A:\FACULTATE ANUL2\SEM1\G3D\AEROPORTUL\PROIECT\SOLUTION\..\EXTERN\FREEGLUT\LIB\X64" /LIBPATH:"A:\FACULTATE ANUL2\SEM1\G3D\AEROPORTUL\PROIECT\SOLUTION\..\EXTERN\GLFW\LIB-VC2015" /LIBPATH:"A:\FACULTATE ANUL2\SEM1\G3D\AEROPORTUL\PROIECT\SOLUTION\..\EXTERN\ASSIMP\LIB\X64\\" /LIBPATH:"A:\FACULTATE ANUL2\SEM1\G3D\AEROPORTUL\PROIECT\SOLUTION\..\GLEW\LIB\RELEASE\X64" "..\EXTERN\GLFW\LIB-VC2015\GLFW3.LIB" "..\EXTERN\ASSIMP\LIB\X64\ASSIMP-VC140-MT.LIB" KERNEL32.LIB USER32.LIB GDI32.LIB WINSPOOL.LIB COMDLG32.LIB ADVAPI32.LIB SHELL32.LIB OLE32.LIB OLEAUT32.LIB UUID.LIB ODBC32.LIB ODBCCP32.LIB /MANIFEST /MANIFESTUAC:"level='asInvoker' uiAccess='false'" /manifest:embed /DEBUG:FULL /PDB:"A:\FACULTATE ANUL2\SEM1\G3D\AEROPORTUL\PROIECT\SOLUTION\X64\RELEASE\PROJECTG3D.PDB" /OPT:REF /OPT:ICF /LTCG:incremental /TLBID:1 /DYNAMICBASE /NXCOMPAT /IMPLIB:"A:\FACULTATE ANUL2\SEM1\G3D\AEROPORTUL\PROIECT\SOLUTION\X64\RELEASE\PROJECTG3D.LIB" /MACHINE:X64 X64\RELEASE\GLAD.OBJX64\RELEASE\MAIN.OBJ
^A:\FACULTATE ANUL2\SEM1\G3D\EXEMPLU\AEROPORT TEST\SOLUTION\X64\RELEASE\GLAD.OBJ|A:\FACULTATE ANUL2\SEM1\G3D\EXEMPLU\AEROPORT TEST\SOLUTION\X64\RELEASE\MAIN.OBJ
/OUT:"A:\FACULTATE ANUL2\SEM1\G3D\EXEMPLU\AEROPORT TEST\SOLUTION\X64\RELEASE\PROJECTG3D.EXE" /NOLOGO /LIBPATH:"A:\FACULTATE ANUL2\SEM1\G3D\EXEMPLU\AEROPORT TEST\SOLUTION\..\EXTERN\FREEGLUT\LIB\X64" /LIBPATH:"A:\FACULTATE ANUL2\SEM1\G3D\EXEMPLU\AEROPORT TEST\SOLUTION\..\EXTERN\GLFW\LIB-VC2015" /LIBPATH:"A:\FACULTATE ANUL2\SEM1\G3D\EXEMPLU\AEROPORT TEST\SOLUTION\..\EXTERN\ASSIMP\LIB\X64\\" /LIBPATH:"A:\FACULTATE ANUL2\SEM1\G3D\EXEMPLU\AEROPORT TEST\SOLUTION\..\GLEW\LIB\RELEASE\X64" "..\EXTERN\GLFW\LIB-VC2015\GLFW3.LIB" "..\EXTERN\ASSIMP\LIB\X64\ASSIMP-VC140-MT.LIB" KERNEL32.LIB USER32.LIB GDI32.LIB WINSPOOL.LIB COMDLG32.LIB ADVAPI32.LIB SHELL32.LIB OLE32.LIB OLEAUT32.LIB UUID.LIB ODBC32.LIB ODBCCP32.LIB /MANIFEST /MANIFESTUAC:"level='asInvoker' uiAccess='false'" /manifest:embed /DEBUG:FULL /PDB:"A:\FACULTATE ANUL2\SEM1\G3D\EXEMPLU\AEROPORT TEST\SOLUTION\X64\RELEASE\PROJECTG3D.PDB" /OPT:REF /OPT:ICF /LTCG:incremental /TLBID:1 /DYNAMICBASE /NXCOMPAT /IMPLIB:"A:\FACULTATE ANUL2\SEM1\G3D\EXEMPLU\AEROPORT TEST\SOLUTION\X64\RELEASE\PROJECTG3D.LIB" /MACHINE:X64 X64\RELEASE\GLAD.OBJX64\RELEASE\MAIN.OBJ
^A:\FACULTATE ANUL2\SEM1\G3D\AEROPORT-G3D REPO\SOLUTION\X64\RELEASE\GLAD.OBJ|A:\FACULTATE ANUL2\SEM1\G3D\AEROPORT-G3D REPO\SOLUTION\X64\RELEASE\MAIN.OBJ
/OUT:"A:\FACULTATE ANUL2\SEM1\G3D\AEROPORT-G3D REPO\SOLUTION\X64\RELEASE\PROJECTG3D.EXE" /NOLOGO /LIBPATH:"A:\FACULTATE ANUL2\SEM1\G3D\AEROPORT-G3D REPO\SOLUTION\..\EXTERN\FREEGLUT\LIB\X64" /LIBPATH:"A:\FACULTATE ANUL2\SEM1\G3D\AEROPORT-G3D REPO\SOLUTION\..\EXTERN\GLFW\LIB-VC2015" /LIBPATH:"A:\FACULTATE ANUL2\SEM1\G3D\AEROPORT-G3D REPO\SOLUTION\..\EXTERN\ASSIMP\LIB\X64\\" /LIBPATH:"A:\FACULTATE ANUL2\SEM1\G3D\AEROPORT-G3D REPO\SOLUTION\..\GLEW\LIB\RELEASE\X64" "..\EXTERN\GLFW\LIB-VC2015\GLFW3.LIB" "..\EXTERN\ASSIMP\LIB\X64\ASSIMP-VC140-MT.LIB" KERNEL32.LIB USER32.LIB GDI32.LIB WINSPOOL.LIB COMDLG32.LIB ADVAPI32.LIB SHELL32.LIB OLE32.LIB OLEAUT32.LIB UUID.LIB ODBC32.LIB ODBCCP32.LIB /MANIFEST /MANIFESTUAC:"level='asInvoker' uiAccess='false'" /manifest:embed /DEBUG:FULL /PDB:"A:\FACULTATE ANUL2\SEM1\G3D\AEROPORT-G3D REPO\SOLUTION\X64\RELEASE\PROJECTG3D.PDB" /OPT:REF /OPT:ICF /LTCG:incremental /TLBID:1 /DYNAMICBASE /NXCOMPAT /IMPLIB:"A:\FACULTATE ANUL2\SEM1\G3D\AEROPORT-G3D REPO\SOLUTION\X64\RELEASE\PROJECTG3D.LIB" /MACHINE:X64 X64\RELEASE\GLAD.OBJX64\RELEASE\MAIN.OBJ
